<svg xmlns="http://www.w3.org/2000/svg" width="305.026" height="103" viewBox="0 0 305.026 103">
  <g id="Сгруппировать_20" data-name="Сгруппировать 20" transform="translate(-94.974 -1149.328)">
    <g id="Group_13" data-name="Group 13" transform="translate(94.974 1191.697)">
      <g id="Group_12" data-name="Group 12">
        <path id="Path_2" data-name="Path 2" d="M1009.619,384.983h3.688l1.536,2.093,1.537-2.093h3.688l-3.381,4.616,3.688,5.016h-3.688l-1.844-2.585L1013,394.616h-3.688l3.626-5.016-3.318-4.616Z" transform="translate(-715.349 -384.983)" fill="#942443" fill-rule="evenodd"/>
        <g id="Group_11" data-name="Group 11">
          <path id="Path_3" data-name="Path 3" d="M-469.618,384.982h3.688l1.536,2.093,1.475-2.093h3.688l-3.319,4.616,3.626,5.016h-3.688l-1.844-2.585-1.844,2.585h-3.688l3.688-5.016-3.319-4.616Z" transform="translate(469.987 -384.982)" fill="#942443" fill-rule="evenodd"/>
        </g>
      </g>
    </g>
    <path id="Контур_21" data-name="Контур 21" d="M-322.359,234.6V257.6h-22.188V194.93h-23.2V175.478h68.825V194.93h-23.441v7.62h1.192v-6.428h23.441V174.286h-71.21v21.837h23.2v62.666h24.572V234.6Z" transform="translate(483.99 975.542)" fill="#556db2" stroke="#556db2" stroke-width="1"/>
    <g id="Сгруппировать_17" data-name="Сгруппировать 17" transform="translate(210.523 1149.828)">
      <path id="Контур_22" data-name="Контур 22" d="M112.677,175.478h59.574l-.123,18.348H134.021v13.491h9.247v-1.192h-8.055V195.018h38.1l.14-20.732H111.485V202.55h1.192Z" transform="translate(-111.485 -174.286)" fill="#556db2" stroke="#556db2" stroke-width="1"/>
      <path id="Контур_23" data-name="Контур 23" d="M361.213,354.84V334.507h-7.27V335.7h6.078v17.948h-6.158l-.155,1.192Z" transform="translate(-305.574 -302.668)" fill="#556db2" stroke="#556db2" stroke-width="1"/>
      <path id="Контур_24" data-name="Контур 24" d="M135.03,443.5V432.021h.071l-.017-1.192h-1.245v13.86h38.537v18.471h-59.7v-28.19h-1.192v29.383h62.081V443.5Z" transform="translate(-111.485 -379.849)" fill="#556db2" stroke="#556db2" stroke-width="1"/>
    </g>
    <path id="Path_19" data-name="Path 19" d="M-159.908,329.445h26.451l-.056,5.952h-16.7V339.8h13.954v6.18h-13.954v10.378h-9.695Zm36.818,26.917,12.721-26.917h9.919l12.778,26.917h-9.583l-2.354-5.2h-11.376l-2.466,5.2Zm21.329-10.488-3.954-7.822-4.012,7.822h0m48.674,1.99h0l-.056,1.419-.168,1.3-.224,1.169-.168.543-.224.5h0l-.224.46-.28.46-.336.438-.392.376-.393.376-.448.292-.5.293-.56.292h0l-.616.209-.672.209-.729.167-.841.126-.841.125-.953.084-.953.041h-2.689l-1.849-.083h0l-1.737-.125-1.345-.168v-6.495h0l1.57.126h0l.841.042h1.4l.561-.042.5-.084.5-.125.393-.125.336-.167.28-.209.28-.208h0l.168-.293.168-.292.168-.335.112-.376.168-.793.055-1v-16.54h9.7v18.418Zm37.827-18.418h9.7v26.916h-8.744l-15.074-16.036v16.036h-9.695V329.445h9.751l14.066,15.035V329.445Zm56.6,0L20.54,345.191v11.172H10.846V345.19L-1.876,329.445H8.6l7.117,9.585,7.061-9.585Z" transform="translate(316.5 851.216)" fill="#942443" fill-rule="evenodd"/>
    <g id="Сгруппировать_18" data-name="Сгруппировать 18" transform="translate(297.588 1149.828)">
      <path id="Контур_25" data-name="Контур 25" d="M550.812,175.478h23.971l21.641,27.072h1.525L575.764,174.8l-.36-.514H549.62V202.55h1.192Z" transform="translate(-549.62 -174.286)" fill="#556db2" stroke="#556db2" stroke-width="1"/>
      <path id="Контур_26" data-name="Контур 26" d="M773.35,174.286V211.9l-2.182-2.729-.667,1.075,4.041,5.055V175.478h22.127V257.6H776.774L760.645,234.6h-1.456l16.788,23.929.178.254h21.707v-84.5Z" transform="translate(-717.543 -174.286)" fill="#556db2" stroke="#556db2" stroke-width="1"/>
      <path id="Контур_27" data-name="Контур 27" d="M574.622,404.115v37.639h-23.81V418.763H549.62v24.183h26.195V405.591Z" transform="translate(-549.62 -358.444)" fill="#556db2" stroke="#556db2" stroke-width="1"/>
    </g>
    <text id="SKLEP" transform="translate(226 1249.328)" fill="#942443" font-size="10" font-family="Montserrat-Black, Montserrat" font-weight="800" letter-spacing="0.772em"><tspan x="0" y="0">SKLEP</tspan></text>
  </g>
</svg>
